…
## Problem 1

``` r
# Read data and clean its names
NYC_T = read.csv('./data/NYC_Transit_Subway_Entrance_And_Exit_Data.csv') %>%
  janitor::clean_names()

# Check which columns got NULL values
NYC_T %>% naniar::miss_var_summary()
```

    ## # A tibble: 32 × 3
    ##    variable          n_miss pct_miss
    ##    <chr>              <int>    <dbl>
    ##  1 route10             1845     98.8
    ##  2 route11             1845     98.8
    ##  3 route9              1840     98.5
    ##  4 route8              1820     97.4
    ##  5 division               0      0  
    ##  6 line                   0      0  
    ##  7 station_name           0      0  
    ##  8 station_latitude       0      0  
    ##  9 station_longitude      0      0  
    ## 10 route1                 0      0  
    ## # … with 22 more rows
…
